{
  "$schema": "http://json-schema.org/draft-04/schema#",
  "type": ["object", "null"],
  "additionalProperties": false,
  "properties": {
    "port": {
      "type": "integer"
    },
    "name": {
      "type": "string"
    },
    "transport_protocol": {
      "type": "string"
    }
  },
  "required": [
    "port",
    "name",
    "transport_protocol"
  ]
}
