{
  "$schema": "http://json-schema.org/draft-04/schema#",
  "type": "object",
  "properties": {
    "response": {
      "type": "array",
      "items": {
        "type": "object",
        "additionalProperties": false,
        "properties": {
          "id": {
            "type": "integer"
          },
          "ip": {
            "type": ["null", "string"]
          },
          "fqdn": {
            "type": ["null", "string"]
          },
          "use_fqdn_as_target": {
            "type": "boolean"
          },
          "target_address": {
            "type": "string"
          },
          "name": {
            "type": "string"
          },
          "description": {
            "type": "string"
          },
          "latest_assessment_stats": {
            "type": "object",
            "properties": {
              "passing": {
                "type": "integer"
              },
              "warning": {
                "type": "integer"
              },
              "failing": {
                "type": "integer"
              },
              "erroring": {
                "type": "integer"
              },
              "informing": {
                "type": "integer"
              }
            },
            "required": [
              "passing",
              "warning",
              "failing",
              "erroring",
              "informing"
            ]
          },
          "organization_id": {
            "type": "integer"
          },
          "ssh_key_pair": {
            "type": ["null", "object"]
          },
          "scheduled_service_discovery": {
            "type": ["null", "object"]
          },
          "services": {
            "type": "array"
          }
        },
        "required": [
          "id",
          "ip",
          "fqdn",
          "use_fqdn_as_target",
          "name",
          "description",
          "target_address",
          "latest_assessment_stats",
          "organization_id",
          "ssh_key_pair",
          "services",
          "scheduled_service_discovery"
        ]
      }
    }
  },
  "required": [
    "response"
  ]
}
