{
  "$schema": "http://json-schema.org/draft-04/schema#",
  "type": "object",
  "properties": {
    "response": {
      "type": "object",
      "additionalProperties": false,
      "properties": {
        "id": {
          "type": "integer"
        },
        "created_by": {
          "type": "string"
        },
        "created_at": {
          "type": "string",
          "format": "date-time"
        },
        "updated_at": {
          "type": "string",
          "format": "date-time"
        },
        "organization_id": {
          "type": "integer"
        },
        "type": {
          "type": "string"
        },
        "auto_sync": {
          "type": "boolean"
        },
        "custom_jira_configuration": {
          "$ref": "custom_jira_configuration.json#/properties/response"
        },
        "required": [
          "created_by",
          "created_at",
          "updated_at",
          "organization_id",
          "type",
          "auto_sync"
        ]
      }
    },
    "required": [
      "response"
    ]
  }
}
